\relax 
\providecommand\hyper@newdestlabel[2]{}
\catcode`"\active
\catcode`-\active
\providecommand\HyperFirstAtBeginDocument{\AtBeginDocument}
\HyperFirstAtBeginDocument{\ifx\hyper@anchor\@undefined
\global\let\oldcontentsline\contentsline
\gdef\contentsline#1#2#3#4{\oldcontentsline{#1}{#2}{#3}}
\global\let\oldnewlabel\newlabel
\gdef\newlabel#1#2{\newlabelxx{#1}#2}
\gdef\newlabelxx#1#2#3#4#5#6{\oldnewlabel{#1}{{#2}{#3}}}
\AtEndDocument{\ifx\hyper@anchor\@undefined
\let\contentsline\oldcontentsline
\let\newlabel\oldnewlabel
\fi}
\fi}
\global\let\hyper@last\relax 
\gdef\HyperFirstAtBeginDocument#1{#1}
\providecommand\HyField@AuxAddToFields[1]{}
\providecommand\HyField@AuxAddToCoFields[2]{}
\select@language{czech}
\@writefile{toc}{\select@language{czech}}
\@writefile{lof}{\select@language{czech}}
\@writefile{lot}{\select@language{czech}}
\citation{ims}
\citation{ims}
\citation{svaz}
\@writefile{toc}{\contentsline {chapter}{\numberline {1}\IeC {\'U}vod}{1}{chapter.1}}
\@writefile{lof}{\addvspace {10\p@ }}
\@writefile{lot}{\addvspace {10\p@ }}
\@writefile{toc}{\contentsline {section}{\numberline {1.1}Auto\IeC {\v r}i projektu a spolupr\IeC {\'a}ce}{1}{section.1.1}}
\@writefile{toc}{\contentsline {section}{\numberline {1.2}Validita modelu}{1}{section.1.2}}
\citation{vse}
\citation{vcelarstvi}
\citation{vse}
\citation{vcelky}
\citation{vse}
\citation{vcelky}
\citation{vse}
\citation{vse}
\citation{vcelarstvi}
\@writefile{toc}{\contentsline {chapter}{\numberline {2}Rozbor t\IeC {\'e}matu a pou\IeC {\v z}it\IeC {\'y}ch metod/technologi\IeC {\'\i }}{2}{chapter.2}}
\@writefile{lof}{\addvspace {10\p@ }}
\@writefile{lot}{\addvspace {10\p@ }}
\newlabel{chap:rozbor}{{2}{2}{Rozbor tématu a použitých metod/technologií}{chapter.2}{}}
\@writefile{toc}{\contentsline {paragraph}{V\IeC {\v c}el\IeC {\'\i } \IeC {\'u}l}{2}{section*.3}}
\@writefile{toc}{\contentsline {paragraph}{V\IeC {\v c}elstvo}{2}{section*.4}}
\@writefile{toc}{\contentsline {paragraph}{Matka}{2}{section*.5}}
\@writefile{toc}{\contentsline {paragraph}{D\IeC {\v e}lnice}{2}{section*.7}}
\citation{vse}
\citation{vse}
\citation{vcelky}
\citation{vse}
\citation{vcelky}
\citation{ims}
\citation{ims}
\citation{ims}
\@writefile{lof}{\contentsline {figure}{\numberline {2.1}{\ignorespaces Graf po\IeC {\v c}tu nakladen\IeC {\'y}ch vajec v pr\IeC {\r u}b\IeC {\v e}hu roku\relax }}{3}{figure.caption.6}}
\providecommand*\caption@xref[2]{\@setref\relax\@undefined{#1}}
\newlabel{fig:graf1}{{2.1}{3}{Graf počtu nakladených vajec v průběhu roku\relax }{figure.caption.6}{}}
\@writefile{toc}{\contentsline {paragraph}{Trubec}{3}{section*.8}}
\@writefile{toc}{\contentsline {paragraph}{Varroa destructor}{3}{section*.9}}
\@writefile{toc}{\contentsline {paragraph}{Rojen\IeC {\'\i }}{3}{section*.10}}
\@writefile{toc}{\contentsline {paragraph}{V\IeC {\v c}ela\IeC {\v r}}{3}{section*.11}}
\@writefile{toc}{\contentsline {section}{\numberline {2.1}Popis pou\IeC {\v z}it\IeC {\'y}ch postup\IeC {\r u} pro vytvo\IeC {\v r}en\IeC {\'\i } modelu}{3}{section.2.1}}
\citation{simlib}
\@writefile{toc}{\contentsline {section}{\numberline {2.2}Popis p\IeC {\r u}vodu pou\IeC {\v z}it\IeC {\'y}ch metod/technologi\IeC {\'\i }}{4}{section.2.2}}
\citation{potreby}
\@writefile{toc}{\contentsline {chapter}{\numberline {3}Koncepce}{5}{chapter.3}}
\@writefile{lof}{\addvspace {10\p@ }}
\@writefile{lot}{\addvspace {10\p@ }}
\newlabel{chap:koncepce}{{3}{5}{Koncepce}{chapter.3}{}}
\@writefile{toc}{\contentsline {section}{\numberline {3.1}Zp\IeC {\r u}sob vyj\IeC {\'a}d\IeC {\v r}en\IeC {\'\i } konceptu\IeC {\'a}ln\IeC {\'\i }ho modelu}{6}{section.3.1}}
\@writefile{toc}{\contentsline {section}{\numberline {3.2}Formy konceptu\IeC {\'a}ln\IeC {\'\i }ho modelu}{6}{section.3.2}}
\@writefile{lof}{\contentsline {figure}{\numberline {3.1}{\ignorespaces Petriho s\IeC {\'\i }\IeC {\v t} popisuj\IeC {\'\i }c\IeC {\'\i } proces jeden\IeC {\'\i }\relax }}{6}{figure.caption.12}}
\newlabel{fig:sit1}{{3.1}{6}{Petriho síť popisující proces jedení\relax }{figure.caption.12}{}}
\@writefile{lof}{\contentsline {figure}{\numberline {3.2}{\ignorespaces Petriho s\IeC {\'\i }\IeC {\v t} popisuj\IeC {\'\i }c\IeC {\'\i } nouzov\IeC {\'e} vytv\IeC {\'a}\IeC {\v r}en\IeC {\'\i } matky\relax }}{6}{figure.caption.13}}
\newlabel{fig:sit2}{{3.2}{6}{Petriho síť popisující nouzové vytváření matky\relax }{figure.caption.13}{}}
\@writefile{toc}{\contentsline {chapter}{\numberline {4}Architektura simula\IeC {\v c}n\IeC {\'\i }ho modelu/simul\IeC {\'a}toru}{7}{chapter.4}}
\@writefile{lof}{\addvspace {10\p@ }}
\@writefile{lot}{\addvspace {10\p@ }}
\@writefile{toc}{\contentsline {section}{\numberline {4.1}Mapov\IeC {\'a}n\IeC {\'\i } abstraktn\IeC {\'\i }ho modelu do simula\IeC {\v c}n\IeC {\'\i }ho}{7}{section.4.1}}
\@writefile{toc}{\contentsline {chapter}{\numberline {5}Podstata simula\IeC {\v c}n\IeC {\'\i }ch experiment\IeC {\r u} a jejich pr\IeC {\r u}b\IeC {\v e}h}{8}{chapter.5}}
\@writefile{lof}{\addvspace {10\p@ }}
\@writefile{lot}{\addvspace {10\p@ }}
\@writefile{toc}{\contentsline {section}{\numberline {5.1}Postup experimentov\IeC {\'a}n\IeC {\'\i }}{8}{section.5.1}}
\@writefile{toc}{\contentsline {section}{\numberline {5.2}Dokumentace jednotliv\IeC {\'y}ch experiment\IeC {\r u}}{8}{section.5.2}}
\@writefile{toc}{\contentsline {subsection}{\numberline {5.2.1}Norm\IeC {\'a}ln\IeC {\'\i } stav}{8}{subsection.5.2.1}}
\@writefile{lof}{\contentsline {figure}{\numberline {5.1}{\ignorespaces Populace v\IeC {\v c}el v \IeC {\'u}le\relax }}{8}{figure.caption.14}}
\newlabel{fig:graf3}{{5.1}{8}{Populace včel v úle\relax }{figure.caption.14}{}}
\@writefile{lof}{\contentsline {figure}{\numberline {5.2}{\ignorespaces Pr\IeC {\r u}m\IeC {\v e}rn\IeC {\'y} v\IeC {\v e}k v\IeC {\v c}el ve dnech\relax }}{8}{figure.caption.14}}
\newlabel{fig:graf5}{{5.2}{8}{Průměrný věk včel ve dnech\relax }{figure.caption.14}{}}
\@writefile{toc}{\contentsline {subsection}{\numberline {5.2.2}Matce se nepoda\IeC {\v r}ilo sp\IeC {\'a}\IeC {\v r}it}{9}{subsection.5.2.2}}
\@writefile{lof}{\contentsline {figure}{\numberline {5.3}{\ignorespaces Dopad ztr\IeC {\'a}ty matky na v\IeC {\v c}elstvo\relax }}{9}{figure.caption.15}}
\newlabel{fig:graf6}{{5.3}{9}{Dopad ztráty matky na včelstvo\relax }{figure.caption.15}{}}
\@writefile{toc}{\contentsline {subsection}{\numberline {5.2.3}Zru\IeC {\v s}en\IeC {\'\i } tlumen\IeC {\'\i } varo\IeC {\'a}zy}{9}{subsection.5.2.3}}
\@writefile{lof}{\contentsline {figure}{\numberline {5.4}{\ignorespaces Dopad varo\IeC {\'a}zy na v\IeC {\v c}elstvo\relax }}{10}{figure.caption.16}}
\newlabel{fig:graf7}{{5.4}{10}{Dopad varoázy na včelstvo\relax }{figure.caption.16}{}}
\@writefile{toc}{\contentsline {subsection}{\numberline {5.2.4}Studen\IeC {\'e} l\IeC {\'e}to}{10}{subsection.5.2.4}}
\@writefile{toc}{\contentsline {subsection}{\numberline {5.2.5}Rojen\IeC {\'\i }}{10}{subsection.5.2.5}}
\@writefile{lof}{\contentsline {figure}{\numberline {5.5}{\ignorespaces Dopad rojen\IeC {\'\i } na produkci medu\relax }}{10}{figure.caption.17}}
\newlabel{fig:graf8}{{5.5}{10}{Dopad rojení na produkci medu\relax }{figure.caption.17}{}}
\@writefile{toc}{\contentsline {section}{\numberline {5.3}Z\IeC {\'a}v\IeC {\v e}ry experiment\IeC {\r u}}{10}{section.5.3}}
\@writefile{toc}{\contentsline {chapter}{\numberline {6}Shrnut\IeC {\'\i } simula\IeC {\v c}n\IeC {\'\i }ch experiment\IeC {\r u} a z\IeC {\'a}v\IeC {\v e}r}{11}{chapter.6}}
\@writefile{lof}{\addvspace {10\p@ }}
\@writefile{lot}{\addvspace {10\p@ }}
\bibcite{vse}{1}
\bibcite{vcelky}{2}
\bibcite{vcelarstvi}{3}
\bibcite{svaz}{4}
\bibcite{muni}{5}
\bibcite{potreby}{6}
\bibcite{ims}{7}
\bibcite{simlib}{8}
